…
## Loading and preprocessing the data


```r
if(!dir.exists('data')) {
    dir.create('data')
    unzip('activity.zip', exdir = 'data')
}
data <- read_csv('data/activity.csv')
data
```

```
## # A tibble: 17,568 x 3
##    steps date       interval
##    <dbl> <date>        <dbl>
##  1    NA 2012-10-01        0
##  2    NA 2012-10-01        5
##  3    NA 2012-10-01       10
##  4    NA 2012-10-01       15
##  5    NA 2012-10-01       20
##  6    NA 2012-10-01       25
##  7    NA 2012-10-01       30
##  8    NA 2012-10-01       35
##  9    NA 2012-10-01       40
## 10    NA 2012-10-01       45
## # ... with 17,558 more rows
```
## What is mean total number of steps taken per day?
Calculate the total number of steps taken per day

```r
steps_per_day <- data %>%
    group_by(date) %>%
    summarize(steps = sum(steps, na.rm = TRUE))
steps_per_day
```

```
## # A tibble: 61 x 2
##    date       steps
##    <date>     <dbl>
##  1 2012-10-01     0
##  2 2012-10-02   126
##  3 2012-10-03 11352
##  4 2012-10-04 12116
##  5 2012-10-05 13294
##  6 2012-10-06 15420
##  7 2012-10-07 11015
##  8 2012-10-08     0
##  9 2012-10-09 12811
## 10 2012-10-10  9900
## # ... with 51 more rows
```
…
```r
new_steps_per_day <- new_data %>%
    group_by(date) %>%
    summarize(steps = sum(steps, na.rm = TRUE))
new_steps_per_day
```

```
## # A tibble: 61 x 2
##    date        steps
##    <date>      <dbl>
##  1 2012-10-01 10766.
##  2 2012-10-02   126 
##  3 2012-10-03 11352 
##  4 2012-10-04 12116 
##  5 2012-10-05 13294 
##  6 2012-10-06 15420 
##  7 2012-10-07 11015 
##  8 2012-10-08 10766.
##  9 2012-10-09 12811 
## 10 2012-10-10  9900 
## # ... with 51 more rows
```
…
